17 Wrangling – COMP/STAT112 Notebook
…
# calculates the median of republican support across all counties, name it "median_repub" and calculate the toal votes of the election across all counties.
 elections_small |> 
   summarize(median_repub = median(repub_pct_20), total_votes = sum(total_votes_20))

  median_repub total_votes
1        68.29   157949293

Exercise 8: summarize + group_by demo

Finally, group_by() groups the units of observation or rows of a data frame by a specified set of variables. Alone, this function doesn’t change the appearance of our dataset or seem to do anything at all:

 elections_small |> 
   group_by(state_name)

# A tibble: 3,109 × 7
# Groups:   state_name [50]
   state_name county_name  total_votes_20 repub_pct_20 dem_pct_20 total_votes_16
   <chr>      <chr>                 <int>        <dbl>      <dbl>          <int>
 1 Alabama    Autauga Cou…          27770         71.4      27.0           24661
 2 Alabama    Baldwin Cou…         109679         76.2      22.4           94090
 3 Alabama    Barbour Cou…          10518         53.4      45.8           10390
 4 Alabama    Bibb County            9595         78.4      20.7            8748
 5 Alabama    Blount Coun…          27588         89.6       9.57          25384
 6 Alabama    Bullock Cou…           4613         24.8      74.7            4701
 7 Alabama    Butler Coun…           9488         57.5      41.8            8685
 8 Alabama    Calhoun Cou…          50983         68.8      29.8           47376
 9 Alabama    Chambers Co…          15284         57.3      41.6           13778
10 Alabama    Cherokee Co…          12301         86.0      13.2           10503
# ℹ 3,099 more rows
# ℹ 1 more variable: dem_pct_16 <dbl>
…
 elections_small |> 
   group_by(state_name) |> 
   class()

[1] "grouped_df" "tbl_df"     "tbl"        "data.frame"

Where it really shines is in partnership with summarize().

# calculate the republican median and the total votes per state
# we would get the results by county
elections_small |> 
   group_by(state_name) |> 
   summarize(median_repub = median(repub_pct_20), total_votes = sum(total_votes_20)) 

# A tibble: 50 × 3
   state_name           median_repub total_votes
   <chr>                       <dbl>       <int>
 1 Alabama                      70.6     2323304
 2 Arizona                      57.9     3387326
 3 Arkansas                     72.1     1219069
 4 California                   44.8    17495906
 5 Colorado                     56.2     3256953
 6 Connecticut                  41.0     1824280
 7 Delaware                     47.1      504010
 8 District of Columbia          5.4      344356
 9 Florida                      64.6    11067456
10 Georgia                      68       4997716
# ℹ 40 more rows
…
NOTE: Part a is a challenge exercise. If you get really stuck, move on to Part b which is the same overall question, but with hints.

# Sort the *states* from the most to least total votes cast in 2020

# - sort the states -> group-by
# total votes in 2020 -> summarize
# - from the most to least total votes cast in 2020 -> arrange(desc())

elections_small |>
  group_by(state_name) |>
  summarise(total_votes = sum(total_votes_20)) |>
  arrange(desc(total_votes))

# A tibble: 50 × 2
   state_name     total_votes
   <chr>                <int>
 1 California        17495906
 2 Texas             11317911
 3 Florida           11067456
 4 New York           8616205
 5 Pennsylvania       6925255
 6 Illinois           6038850
 7 Ohio               5922202
 8 Michigan           5539302
 9 North Carolina     5524801
10 Georgia            4997716
# ℹ 40 more rows

# In 2020, what were the total number of votes for the Democratic candidate and the total number of votes for the Republican candidate in each *state*?

# In each state -> group-by
# Total number of votes for dem -> summarize
# Total number of votes dro Rep -> summarize

elections_small |>
  mutate(dem_votes_20 = round(total_votes_20*dem_pct_20/100), repub_votes_20 = round(total_votes_20*repub_pct_20/100)) |>
  group_by(state_name) |>
  summarize(dem_total = sum(dem_votes_20), repub_total = sum(repub_votes_20))

# A tibble: 50 × 3
   state_name           dem_total repub_total
   <chr>                    <dbl>       <dbl>
 1 Alabama                 849664     1441155
 2 Arizona                1672127     1661671
 3 Arkansas                423919      760641
 4 California            11109642     6006031
 5 Colorado               1804393     1364627
 6 Connecticut            1080677      715315
 7 Delaware                296274      200601
 8 District of Columbia    317324       18595
 9 Florida                5297131     5668600
10 Georgia                2473661     2461869
# ℹ 40 more rows

# What states did the Democratic candidate win in 2020?

# what states-> group-by
# democratic candidate win in 2020 -> mutate

elections_small |>
  group_by(state_name) |>
  mutate(dem_won_20 = dem_pct_20 > repub_pct_20)

# A tibble: 3,109 × 8
# Groups:   state_name [50]
   state_name county_name  total_votes_20 repub_pct_20 dem_pct_20 total_votes_16
   <chr>      <chr>                 <int>        <dbl>      <dbl>          <int>
 1 Alabama    Autauga Cou…          27770         71.4      27.0           24661
 2 Alabama    Baldwin Cou…         109679         76.2      22.4           94090
 3 Alabama    Barbour Cou…          10518         53.4      45.8           10390
 4 Alabama    Bibb County            9595         78.4      20.7            8748
 5 Alabama    Blount Coun…          27588         89.6       9.57          25384
 6 Alabama    Bullock Cou…           4613         24.8      74.7            4701
 7 Alabama    Butler Coun…           9488         57.5      41.8            8685
 8 Alabama    Calhoun Cou…          50983         68.8      29.8           47376
 9 Alabama    Chambers Co…          15284         57.3      41.6           13778
10 Alabama    Cherokee Co…          12301         86.0      13.2           10503
# ℹ 3,099 more rows
# ℹ 2 more variables: dem_pct_16 <dbl>, dem_won_20 <lgl>

Part b

# Sort the states from the most to least total votes cast in 2020
# HINT: Calculate the total number of votes in each state, then sort
elections_small |>
  group_by(state_name) |>
  summarise(total_votes = sum(total_votes_20)) |>
  arrange(desc(total_votes))

# A tibble: 50 × 2
   state_name     total_votes
   <chr>                <int>
 1 California        17495906
 2 Texas             11317911
 3 Florida           11067456
 4 New York           8616205
 5 Pennsylvania       6925255
 6 Illinois           6038850
 7 Ohio               5922202
 8 Michigan           5539302
 9 North Carolina     5524801
10 Georgia            4997716
# ℹ 40 more rows

# In 2020, what were the total number of votes for the Democratic candidate and the total number of votes for the Republican candidate in each state?
# HINT: First calculate the number of Dem and Repub votes in each *county*
# Then group and summarize these by state

elections_small |>
  mutate(repub_total_votes = round(repub_pct_20*total_votes_20/100), dem_total_votes = round(dem_pct_20*total_votes_20/100)) |>
  group_by(state_name) |>
  summarise(statrepb_total = sum(repub_total_votes), 
            statdem_total = sum(dem_total_votes))

# A tibble: 50 × 3
   state_name           statrepb_total statdem_total
   <chr>                         <dbl>         <dbl>
 1 Alabama                     1441155        849664
 2 Arizona                     1661671       1672127
 3 Arkansas                     760641        423919
 4 California                  6006031      11109642
 5 Colorado                    1364627       1804393
 6 Connecticut                  715315       1080677
 7 Delaware                     200601        296274
 8 District of Columbia          18595        317324
 9 Florida                     5668600       5297131
10 Georgia                     2461869       2473661
# ℹ 40 more rows

# What states did the Democratic candidate win in 2020?
# HINT: Start with the results from the previous chunk, and then keep only some rows

elections_small |>
  mutate(repub_total_votes = round(repub_pct_20*total_votes_20/100), dem_total_votes = round(dem_pct_20*total_votes_20/100)) |>
  group_by(state_name) |>
  summarise(statrepb_total = sum(repub_total_votes), 
            statdem_total = sum(dem_total_votes)) |>
  filter(statdem_total > statrepb_total)

# A tibble: 26 × 3
   state_name           statrepb_total statdem_total
   <chr>                         <dbl>         <dbl>
 1 Arizona                     1661671       1672127
 2 California                  6006031      11109642
 3 Colorado                    1364627       1804393
 4 Connecticut                  715315       1080677
 5 Delaware                     200601        296274
 6 District of Columbia          18595        317324
 7 Georgia                     2461869       2473661
 8 Hawaii                       196865        366121
 9 Illinois                    2446931       3471916
10 Maine                        359897        430466
# ℹ 16 more rows
…
