18 Dates – COMP/STAT112 Notebook
…
filter the Gentoo specie

mutate bill length from mm to cm

arrange the column

# Sort Gentoo penguins from biggest to smallest with respect to their 
# bill length in cm (there are 10 mm in a cm)
penguins |>
  filter(species == "Gentoo") |>
  mutate(bill_length_cm = bill_length_mm/10) |>
  arrange(bill_length_cm)

# A tibble: 124 × 9
   species island bill_length_mm bill_depth_mm flipper_length_mm body_mass_g
   <chr>   <chr>           <dbl>         <dbl>             <dbl>       <dbl>
 1 Gentoo  Biscoe           40.9          13.7               214        4650
 2 Gentoo  Biscoe           41.7          14.7               210        4700
 3 Gentoo  Biscoe           42            13.5               210        4150
 4 Gentoo  Biscoe           42.6          13.7               213        4950
 5 Gentoo  Biscoe           42.7          13.7               208        3950
 6 Gentoo  Biscoe           42.8          14.2               209        4700
 7 Gentoo  Biscoe           42.9          13.1               215        5000
 8 Gentoo  Biscoe           43.2          14.5               208        4450
 9 Gentoo  Biscoe           43.3          13.4               209        4400
10 Gentoo  Biscoe           43.3          14                 208        4575
# ℹ 114 more rows
# ℹ 3 more variables: sex <chr>, year <dbl>, bill_length_cm <dbl>
…
# A tibble: 6 × 3
  species bill_length_mm bill_depth_mm
  <chr>            <dbl>         <dbl>
1 Adelie            39.1          18.7
2 Adelie            39.5          17.4
3 Adelie            40.3          18  
4 Adelie            NA            NA  
5 Adelie            36.7          19.3
6 Adelie            39.3          20.6

# Use a shortcut to keep only species and the length-related characteristics
penguins|>
  select(species, contains("length"))

# A tibble: 344 × 3
   species bill_length_mm flipper_length_mm
   <chr>            <dbl>             <dbl>
 1 Adelie            39.1               181
 2 Adelie            39.5               186
 3 Adelie            40.3               195
 4 Adelie            NA                  NA
 5 Adelie            36.7               193
 6 Adelie            39.3               190
 7 Adelie            38.9               181
 8 Adelie            39.2               195
 9 Adelie            34.1               193
10 Adelie            42                 190
# ℹ 334 more rows

Exercise 3: Arranging, Counting, & Grouping by Multiple Variables

We’ve done examples where we need to filter() by more than one variable, or select() more than one variable. Use your intuition for how we can arrange(), count(), and group_by() more than one variable.

# Change this code to sort the penguins by species, and then island name
# NOTE: The first row should be an Adelie penguin living on Biscoe island
penguins |> 
  arrange(species, island)

# A tibble: 344 × 8
   species island bill_length_mm bill_depth_mm flipper_length_mm body_mass_g
   <chr>   <chr>           <dbl>         <dbl>             <dbl>       <dbl>
 1 Adelie  Biscoe           37.8          18.3               174        3400
 2 Adelie  Biscoe           37.7          18.7               180        3600
 3 Adelie  Biscoe           35.9          19.2               189        3800
 4 Adelie  Biscoe           38.2          18.1               185        3950
 5 Adelie  Biscoe           38.8          17.2               180        3800
 6 Adelie  Biscoe           35.3          18.9               187        3800
 7 Adelie  Biscoe           40.6          18.6               183        3550
 8 Adelie  Biscoe           40.5          17.9               187        3200
 9 Adelie  Biscoe           37.9          18.6               172        3150
10 Adelie  Biscoe           40.5          18.9               180        3950
# ℹ 334 more rows
# ℹ 2 more variables: sex <chr>, year <dbl>
…
# How many total births were there in this time period?
Birthdays |>
  summarise(sum(births))

  sum(births)
1    70486538

# How many total births were there per state in this time period, sorted from low to high?
Birthdays |>
  group_by(state) |>
  summarise(total_births = sum(births)) |>
  arrange(total_births)

# A tibble: 51 × 2
   state total_births
   <chr>        <int>
 1 VT          147886
 2 WY          154019
 3 AK          185385
 4 DE          188705
 5 SD          235734
 6 ND          238696
 7 NV          241470
 8 MT          253884
 9 NH          264984
10 RI          265038
# ℹ 41 more rows

Exercise 6: Homework Reprise

Create a new dataset named daily_births that includes the total number of births per day (across all states) and the corresponding day of the week, eg, Mon. NOTE: Name the column with total births so that it’s easier to wrangle and plot.

daily_births <- Birthdays |>
  group_by(day) |>
  summarise(total_births = sum(births)) |>
  mutate(day_of_week = wday(day, label = TRUE))

daily_births

# A tibble: 31 × 3
     day total_births day_of_week
   <int>        <int> <ord>      
 1     1      2286854 Sun        
 2     2      2303168 Mon        
 3     3      2309087 Tue        
 4     4      2286588 Wed        
 5     5      2296951 Thu        
 6     6      2308073 Fri        
 7     7      2314081 Sat        
 8     8      2322376 <NA>       
 9     9      2315055 <NA>       
10    10      2327197 <NA>       
# ℹ 21 more rows
…
